<?xml version="1.0" encoding="UTF-8" standalone="no"?>
<?xml-stylesheet href="/svg.css" type="text/css"?>
<svg version="1.2" xmlns="http://www.w3.org/2000/svg" xmlns:xlink="http://www.w3.org/1999/xlink" xmlns:atv="http://webmi.atvise.com/2007/svgext" transform-origin="top left">
<script xlink:href="/webmi.js" type="text/ecmascript"/>
<script xlink:href="/environment.js" type="text/ecmascript"/>
<script xlink:href="/svg.js" type="text/ecmascript"/>
<script xlink:href="/panZoom.js" type="text/ecmascript"/>
<script xlink:href="/touchPanZoom.js" type="text/ecmascript"/>
<script xlink:href="/mousePanZoom.js" type="text/ecmascript"/>
<script xlink:href="/hoverInfoProvider.js" type="text/ecmascript"/>
<script type="text/ecmascript">
	<![CDATA[
		window.onload = function() {
			setViewBox();

			var topG = document.getElementById("topG");
			instalControls(topG);

			var indexHtml = parent.parent;
			indexHtml.updateZoomValue(1);
			initializeIndexHtml(indexHtml);
			
			setMonitoringValueVisibility();
		}
	]]>
</script>
	<g id="topG" transform="translate(-330, 20)">
		<g class="variable" id="7_variable" transform="translate(380, 240)">
			<rect class="box" id="7_variable_box" height="20" width="130" rx="5"/>
			<text class="expression" id="7_variable_expression" x="20" y="14"><![CDATA['/request']]></text>
			<g class="pin" id="7_variable_pin" transform="translate(130 10)">
				<circle class="anchor" id="7_variable_pin_anchor" r="3"/>
			</g>
		</g>
		
		<g class="variable" id="8_variable" transform="translate(420, 260)" data-docPath="doc/QoS_c.doc.html">
			<rect class="box" id="8_variable_box" height="20" width="85" rx="5"/>
			<text class="expression" id="8_variable_expression" x="20" y="14">QoS_c</text>
			<g class="pin" id="8_variable_pin" transform="translate(85 10)">
				<circle class="anchor" id="8_variable_pin_anchor" r="3"/>
			</g>
		</g>
		
		<g class="variable" id="9_variable" transform="translate(1879, 420)" data-docPath="doc/QoS_c.doc.html">
			<rect class="box" id="9_variable_box" height="20" width="85" rx="5"/>
			<text class="expression" id="9_variable_expression" x="20" y="14">QoS_c</text>
			<g class="pin" id="9_variable_pin" transform="translate(85 10)">
				<circle class="anchor" id="9_variable_pin_anchor" r="3"/>
			</g>
		</g>
		
		<g class="variable" id="10_variable" transform="translate(1739, 380)">
			<rect class="box" id="10_variable_box" height="20" width="319" rx="5"/>
			<text class="expression" id="10_variable_expression" x="20" y="14">ADR(CPUandETH_diag.arrayToSend)</text>
			<g class="pin" id="10_variable_pin" transform="translate(319 10)">
				<circle class="anchor" id="10_variable_pin_anchor" r="3"/>
			</g>
		</g>
		
		<g class="variable" id="11_variable" transform="translate(420, 220)">
			<rect class="box" id="11_variable_box" height="20" width="85" rx="5"/>
			<text class="expression" id="11_variable_expression" x="20" y="14">TRUE</text>
			<g class="pin" id="11_variable_pin" transform="translate(85 10)">
				<circle class="anchor" id="11_variable_pin_anchor" r="3"/>
			</g>
		</g>
		
		<g class="comment" id="1_comment" transform="translate(970, 210)">
			<rect class="box" id="1_comment_box" height="69" width="300" rx="5"/>
			<text class="expression" id="1_comment_expression">
				<tspan x="5" dy="12">po prijatí topicu sa na základe</tspan>
				<tspan x="5" dy="12">requestu z EMS nastavý triger</tspan>
				<tspan x="5" dy="12">pre požadovanú funkciu</tspan>
			</text>
		</g>
		
		<g class="comment" id="2_comment" transform="translate(520, 150)">
			<rect class="box" id="2_comment_box" height="30" width="374" rx="5"/>
			<text class="expression" id="2_comment_expression">
				<tspan x="5" dy="12">Subscribe topicu na riadenie komunikácie</tspan>
			</text>
		</g>
		
		<g class="comment" id="3_comment" transform="translate(1320, 240)">
			<rect class="box" id="3_comment_box" height="61" width="644" rx="5"/>
			<text class="expression" id="3_comment_expression">
				<tspan x="5" dy="12">funkcia vyčíta dáta o CPUčke a prekonvertuje</tspan>
				<tspan x="5" dy="12">všetko na Array[0..5000] of BYTE, aby bolo možné dáta odoslať cez MQTT</tspan>
				<tspan x="5" dy="12">Správa je vo formate JSON</tspan>
			</text>
		</g>
		
		<g class="comment" id="4_comment" transform="translate(1979, 240)">
			<rect class="box" id="4_comment_box" height="23" width="500" rx="5"/>
			<text class="expression" id="4_comment_expression">
				<tspan x="5" dy="12">odoslanie diagnostických dát na základe requestu z EMS</tspan>
			</text>
		</g>
		
		<g class="comment" id="5_comment" transform="translate(1899, 460)">
			<rect class="box" id="5_comment_box" height="23" width="545" rx="5"/>
			<text class="expression" id="5_comment_expression">
				<tspan x="5" dy="12"><![CDATA[každú minútu odosiela '1' na topic: StartOfTopic + /LiveBit]]></tspan>
			</text>
		</g>
		
		<g class="comment" id="6_comment" transform="translate(1899, 670)">
			<rect class="box" id="6_comment_box" height="23" width="284" rx="5"/>
			<text class="expression" id="6_comment_expression">
				<tspan x="5" dy="12">každých 15 odosiela dáta o FVE</tspan>
			</text>
		</g>
		
		<g class="block" id="75_block" transform="translate(520, 200)" data-docPath="doc/MQTT_SubTopic.doc.html" data-fbpou="MQTTcomm" data-instance="subscribe">
			<rect class="box" id="75_block_box" height="240" width="272" rx="5"/>
			<g class="type" id="75_block_type" transform="translate(1, 1)">
				<rect class="box" id="75_block_type_box" height="20" width="270" rx="4"/>
				<text class="expression" id="75_block_type_expression" x="136" y="13">MQTT_SubTopic</text>
			</g>
			<text class="expression" id="75_block_expression" x="10" y="-10">subscribe</text>
			<g class="left" id="75_block_left" transform="translate(0, 20)">
				<g class="pin" id="75_block_left_pin" transform="translate(0 10)" data-docPath="doc/MQTT_SubTopic.Execute.doc.html">
					<circle class="anchor" id="75_block_left_pin_anchor" r="3"/>
					<text class="expression" id="75_block_left_pin_expression" x="10" dy="3">Execute</text>
				</g>
				<g class="pin" id="75_block_left_pin1" transform="translate(0 30)" data-docPath="doc/MQTT_SubTopic.EndOfTopic.doc.html">
					<circle class="anchor" id="75_block_left_pin1_anchor" r="3"/>
					<text class="expression" id="75_block_left_pin1_expression" x="10" dy="3">EndOfTopic</text>
				</g>
				<g class="pin" id="75_block_left_pin2" transform="translate(0 50)" data-docPath="doc/MQTT_SubTopic.QoS.doc.html">
					<circle class="anchor" id="75_block_left_pin2_anchor" r="3"/>
					<text class="expression" id="75_block_left_pin2_expression" x="10" dy="3">QoS</text>
				</g>
			</g>
			<g class="right" id="75_block_right" transform="translate(0, 20)">
				<g class="pin" id="75_block_right_pin" transform="translate(272 10)" data-docPath="doc/MQTT_SubTopic.STOP_sub.doc.html">
					<circle class="anchor" id="75_block_right_pin_anchor" r="3"/>
					<text class="expression" id="75_block_right_pin_expression" x="-10" dy="3">STOP_sub</text>
				</g>
				<g class="pin" id="75_block_right_pin1" transform="translate(272 30)" data-docPath="doc/MQTT_SubTopic.Done_sub.doc.html">
					<circle class="anchor" id="75_block_right_pin1_anchor" r="3"/>
					<text class="expression" id="75_block_right_pin1_expression" x="-10" dy="3">Done_sub</text>
				</g>
				<g class="pin" id="75_block_right_pin2" transform="translate(272 50)" data-docPath="doc/MQTT_SubTopic.Busy_sub.doc.html">
					<circle class="anchor" id="75_block_right_pin2_anchor" r="3"/>
					<text class="expression" id="75_block_right_pin2_expression" x="-10" dy="3">Busy_sub</text>
				</g>
				<g class="pin" id="75_block_right_pin3" transform="translate(272 70)" data-docPath="doc/MQTT_SubTopic.Error_sub.doc.html">
					<circle class="anchor" id="75_block_right_pin3_anchor" r="3"/>
					<text class="expression" id="75_block_right_pin3_expression" x="-10" dy="3">Error_sub</text>
				</g>
				<g class="pin" id="75_block_right_pin4" transform="translate(272 90)" data-docPath="doc/MQTT_SubTopic.ErrorID_sub.doc.html">
					<circle class="anchor" id="75_block_right_pin4_anchor" r="3"/>
					<text class="expression" id="75_block_right_pin4_expression" x="-10" dy="3">ErrorID_sub</text>
				</g>
				<g class="pin" id="75_block_right_pin5" transform="translate(272 110)" data-docPath="doc/MQTT_SubTopic.MsgArrived.doc.html">
					<circle class="anchor" id="75_block_right_pin5_anchor" r="3"/>
					<text class="expression" id="75_block_right_pin5_expression" x="-10" dy="3">MsgArrived</text>
				</g>
				<g class="pin" id="75_block_right_pin6" transform="translate(272 130)" data-docPath="doc/MQTT_SubTopic.ArrivedTopic.doc.html">
					<circle class="anchor" id="75_block_right_pin6_anchor" r="3"/>
					<text class="expression" id="75_block_right_pin6_expression" x="-10" dy="3">ArrivedTopic</text>
				</g>
				<g class="pin" id="75_block_right_pin7" transform="translate(272 150)" data-docPath="doc/MQTT_SubTopic.arrivedMsg.doc.html">
					<circle class="anchor" id="75_block_right_pin7_anchor" r="3"/>
					<text class="expression" id="75_block_right_pin7_expression" x="-10" dy="3">arrivedMsg</text>
				</g>
				<g class="pin" id="75_block_right_pin8" transform="translate(272 170)" data-docPath="doc/MQTT_SubTopic.ConnectionLost.doc.html">
					<circle class="anchor" id="75_block_right_pin8_anchor" r="3"/>
					<text class="expression" id="75_block_right_pin8_expression" x="-10" dy="3">ConnectionLost</text>
				</g>
				<g class="pin" id="75_block_right_pin9" transform="translate(272 190)" data-docPath="doc/MQTT_SubTopic.ConnectionStatus.doc.html">
					<circle class="anchor" id="75_block_right_pin9_anchor" r="3"/>
					<text class="expression" id="75_block_right_pin9_expression" x="-10" dy="3">ConnectionStatus</text>
				</g>
				<g class="pin" id="75_block_right_pin10" transform="translate(272 210)" data-docPath="doc/MQTT_SubTopic.Error_QueryID.doc.html">
					<circle class="anchor" id="75_block_right_pin10_anchor" r="3"/>
					<text class="expression" id="75_block_right_pin10_expression" x="-10" dy="3">Error_QueryID</text>
				</g>
			</g>
			<g class="order" id="75_block_order" transform="translate(264, -10)">
				<rect class="box" id="75_block_order_box" height="14" width="14" rx="7"/>
				<text class="expression" id="75_block_order_expression" x="10" y="10">0</text>
			</g>
		</g>
		
		<g class="block" id="79_block" transform="translate(969, 300)" data-docPath="doc/MQTT_HandleRequets.doc.html" data-fbpou="MQTTcomm" data-instance="requests">
			<rect class="box" id="79_block_box" height="160" width="299" rx="5"/>
			<g class="type" id="79_block_type" transform="translate(1, 1)">
				<rect class="box" id="79_block_type_box" height="20" width="297" rx="4"/>
				<text class="expression" id="79_block_type_expression" x="149" y="13">MQTT_HandleRequets</text>
			</g>
			<text class="expression" id="79_block_expression" x="10" y="-10">requests</text>
			<g class="left" id="79_block_left" transform="translate(0, 20)">
				<g class="pin" id="79_block_left_pin" transform="translate(0 10)" data-docPath="doc/MQTT_HandleRequets.NewMessage.doc.html">
					<circle class="anchor" id="79_block_left_pin_anchor" r="3"/>
					<text class="expression" id="79_block_left_pin_expression" x="10" dy="3">NewMessage</text>
				</g>
				<g class="pin" id="79_block_left_pin1" transform="translate(0 30)" data-docPath="doc/MQTT_HandleRequets.RequestTopic.doc.html">
					<circle class="anchor" id="79_block_left_pin1_anchor" r="3"/>
					<text class="expression" id="79_block_left_pin1_expression" x="10" dy="3">RequestTopic</text>
				</g>
				<g class="pin" id="79_block_left_pin2" transform="translate(0 50)" data-docPath="doc/MQTT_HandleRequets.RequestMessage.doc.html">
					<circle class="anchor" id="79_block_left_pin2_anchor" r="3"/>
					<text class="expression" id="79_block_left_pin2_expression" x="10" dy="3">RequestMessage</text>
				</g>
			</g>
			<g class="right" id="79_block_right" transform="translate(0, 20)">
				<g class="pin" id="79_block_right_pin" transform="translate(299 10)" data-docPath="doc/MQTT_HandleRequets.ProcessDataReq.doc.html">
					<circle class="anchor" id="79_block_right_pin_anchor" r="3"/>
					<text class="expression" id="79_block_right_pin_expression" x="-10" dy="3">ProcessDataReq</text>
				</g>
				<g class="pin" id="79_block_right_pin1" transform="translate(299 30)" data-docPath="doc/MQTT_HandleRequets.CPUinfoReq.doc.html">
					<circle class="anchor" id="79_block_right_pin1_anchor" r="3"/>
					<text class="expression" id="79_block_right_pin1_expression" x="-10" dy="3">CPUinfoReq</text>
				</g>
				<g class="pin" id="79_block_right_pin2" transform="translate(299 50)" data-docPath="doc/MQTT_HandleRequets.ExtCPUinfoReq.doc.html">
					<circle class="anchor" id="79_block_right_pin2_anchor" r="3"/>
					<text class="expression" id="79_block_right_pin2_expression" x="-10" dy="3">ExtCPUinfoReq</text>
				</g>
				<g class="pin" id="79_block_right_pin3" transform="translate(299 70)" data-docPath="doc/MQTT_HandleRequets.EthStatReq.doc.html">
					<circle class="anchor" id="79_block_right_pin3_anchor" r="3"/>
					<text class="expression" id="79_block_right_pin3_expression" x="-10" dy="3">EthStatReq</text>
				</g>
				<g class="pin" id="79_block_right_pin4" transform="translate(299 90)" data-docPath="doc/MQTT_HandleRequets.CPUinfoReq_C.doc.html">
					<circle class="anchor" id="79_block_right_pin4_anchor" r="3"/>
					<text class="expression" id="79_block_right_pin4_expression" x="-10" dy="3">CPUinfoReq_C</text>
				</g>
				<g class="pin" id="79_block_right_pin5" transform="translate(299 110)" data-docPath="doc/MQTT_HandleRequets.ExtCPUinfoReq_C.doc.html">
					<circle class="anchor" id="79_block_right_pin5_anchor" r="3"/>
					<text class="expression" id="79_block_right_pin5_expression" x="-10" dy="3">ExtCPUinfoReq_C</text>
				</g>
				<g class="pin" id="79_block_right_pin6" transform="translate(299 130)" data-docPath="doc/MQTT_HandleRequets.EthStatReq_C.doc.html">
					<circle class="anchor" id="79_block_right_pin6_anchor" r="3"/>
					<text class="expression" id="79_block_right_pin6_expression" x="-10" dy="3">EthStatReq_C</text>
				</g>
			</g>
			<g class="order" id="79_block_order" transform="translate(291, -10)">
				<rect class="box" id="79_block_order_box" height="14" width="14" rx="7"/>
				<text class="expression" id="79_block_order_expression" x="10" y="10">4</text>
			</g>
		</g>
		
		<g class="block" id="80_block" transform="translate(1330, 320)" data-docPath="doc/CPUethDATA.doc.html" data-fbpou="MQTTcomm" data-instance="CPUandETH_diag">
			<rect class="box" id="80_block_box" height="100" width="272" rx="5"/>
			<g class="type" id="80_block_type" transform="translate(1, 1)">
				<rect class="box" id="80_block_type_box" height="20" width="270" rx="4"/>
				<text class="expression" id="80_block_type_expression" x="136" y="13">CPUethDATA</text>
			</g>
			<text class="expression" id="80_block_expression" x="10" y="-10">CPUandETH_diag</text>
			<g class="left" id="80_block_left" transform="translate(0, 20)">
				<g class="pin" id="80_block_left_pin" transform="translate(0 10)" data-docPath="doc/CPUethDATA.CPUinfo_Trig.doc.html">
					<circle class="anchor" id="80_block_left_pin_anchor" r="3"/>
					<text class="expression" id="80_block_left_pin_expression" x="10" dy="3">CPUinfo_Trig</text>
				</g>
				<g class="pin" id="80_block_left_pin1" transform="translate(0 30)" data-docPath="doc/CPUethDATA.ExtCPUinfo_Trig.doc.html">
					<circle class="anchor" id="80_block_left_pin1_anchor" r="3"/>
					<text class="expression" id="80_block_left_pin1_expression" x="10" dy="3">ExtCPUinfo_Trig</text>
				</g>
				<g class="pin" id="80_block_left_pin2" transform="translate(0 50)" data-docPath="doc/CPUethDATA.EthStat_Trig.doc.html">
					<circle class="anchor" id="80_block_left_pin2_anchor" r="3"/>
					<text class="expression" id="80_block_left_pin2_expression" x="10" dy="3">EthStat_Trig</text>
				</g>
			</g>
			<g class="right" id="80_block_right" transform="translate(0, 20)">
				<g class="pin" id="80_block_right_pin" transform="translate(272 10)" data-docPath="doc/CPUethDATA.trig.doc.html">
					<circle class="anchor" id="80_block_right_pin_anchor" r="3"/>
					<text class="expression" id="80_block_right_pin_expression" x="-10" dy="3">trig</text>
				</g>
				<g class="pin" id="80_block_right_pin1" transform="translate(272 30)" data-docPath="doc/CPUethDATA.EndofTopic.doc.html">
					<circle class="anchor" id="80_block_right_pin1_anchor" r="3"/>
					<text class="expression" id="80_block_right_pin1_expression" x="-10" dy="3">EndofTopic</text>
				</g>
				<g class="pin" id="80_block_right_pin2" transform="translate(272 50)" data-docPath="doc/CPUethDATA.arrayToSend.doc.html">
					<circle class="anchor" id="80_block_right_pin2_anchor" r="3"/>
					<text class="expression" id="80_block_right_pin2_expression" x="-10" dy="3">arrayToSend</text>
				</g>
				<g class="pin" id="80_block_right_pin3" transform="translate(272 70)" data-docPath="doc/CPUethDATA.MessageLEN.doc.html">
					<circle class="anchor" id="80_block_right_pin3_anchor" r="3"/>
					<text class="expression" id="80_block_right_pin3_expression" x="-10" dy="3">MessageLEN</text>
				</g>
			</g>
			<g class="order" id="80_block_order" transform="translate(264, -10)">
				<rect class="box" id="80_block_order_box" height="14" width="14" rx="7"/>
				<text class="expression" id="80_block_order_expression" x="10" y="10">5</text>
			</g>
		</g>
		
		<g class="block" id="81_block" transform="translate(2080, 280)" data-docPath="doc/MQTT_PubTopic_Array.doc.html" data-fbpou="MQTTcomm" data-instance="Pub_CPUeth">
			<rect class="box" id="81_block_box" height="160" width="227" rx="5"/>
			<g class="type" id="81_block_type" transform="translate(1, 1)">
				<rect class="box" id="81_block_type_box" height="20" width="225" rx="4"/>
				<text class="expression" id="81_block_type_expression" x="113" y="13">MQTT_PubTopic_Array</text>
			</g>
			<text class="expression" id="81_block_expression" x="10" y="-10">Pub_CPUeth</text>
			<g class="left" id="81_block_left" transform="translate(0, 20)">
				<g class="pin" id="81_block_left_pin" transform="translate(0 10)" data-docPath="doc/MQTT_PubTopic_Array.Execute.doc.html">
					<circle class="anchor" id="81_block_left_pin_anchor" r="3"/>
					<text class="expression" id="81_block_left_pin_expression" x="10" dy="3">Execute</text>
				</g>
				<g class="pin" id="81_block_left_pin1" transform="translate(0 30)" data-docPath="doc/MQTT_PubTopic_Array.Continuous.doc.html">
					<circle class="anchor" id="81_block_left_pin1_anchor" r="3"/>
					<text class="expression" id="81_block_left_pin1_expression" x="10" dy="3">Continuous</text>
				</g>
				<g class="pin" id="81_block_left_pin2" transform="translate(0 50)" data-docPath="doc/MQTT_PubTopic_Array.Period.doc.html">
					<circle class="anchor" id="81_block_left_pin2_anchor" r="3"/>
					<text class="expression" id="81_block_left_pin2_expression" x="10" dy="3">Period</text>
				</g>
				<g class="pin" id="81_block_left_pin3" transform="translate(0 70)" data-docPath="doc/MQTT_PubTopic_Array.EndOfTopic.doc.html">
					<circle class="anchor" id="81_block_left_pin3_anchor" r="3"/>
					<text class="expression" id="81_block_left_pin3_expression" x="10" dy="3">EndOfTopic</text>
				</g>
				<g class="pin" id="81_block_left_pin4" transform="translate(0 90)" data-docPath="doc/MQTT_PubTopic_Array.pMessage.doc.html">
					<circle class="anchor" id="81_block_left_pin4_anchor" r="3"/>
					<text class="expression" id="81_block_left_pin4_expression" x="10" dy="3">pMessage</text>
				</g>
				<g class="pin" id="81_block_left_pin5" transform="translate(0 110)" data-docPath="doc/MQTT_PubTopic_Array.PubMessageLen.doc.html">
					<circle class="anchor" id="81_block_left_pin5_anchor" r="3"/>
					<text class="expression" id="81_block_left_pin5_expression" x="10" dy="3">PubMessageLen</text>
				</g>
				<g class="pin" id="81_block_left_pin6" transform="translate(0 130)" data-docPath="doc/MQTT_PubTopic_Array.QoS.doc.html">
					<circle class="anchor" id="81_block_left_pin6_anchor" r="3"/>
					<text class="expression" id="81_block_left_pin6_expression" x="10" dy="3">QoS</text>
				</g>
			</g>
			<g class="right" id="81_block_right" transform="translate(0, 20)">
				<g class="pin" id="81_block_right_pin" transform="translate(227 10)" data-docPath="doc/MQTT_PubTopic_Array.ErrorPub.doc.html">
					<circle class="anchor" id="81_block_right_pin_anchor" r="3"/>
					<text class="expression" id="81_block_right_pin_expression" x="-10" dy="3">ErrorPub</text>
				</g>
				<g class="pin" id="81_block_right_pin1" transform="translate(227 30)" data-docPath="doc/MQTT_PubTopic_Array.Done.doc.html">
					<circle class="anchor" id="81_block_right_pin1_anchor" r="3"/>
					<text class="expression" id="81_block_right_pin1_expression" x="-10" dy="3">Done</text>
				</g>
				<g class="pin" id="81_block_right_pin2" transform="translate(227 50)" data-docPath="doc/MQTT_PubTopic_Array.Busy.doc.html">
					<circle class="anchor" id="81_block_right_pin2_anchor" r="3"/>
					<text class="expression" id="81_block_right_pin2_expression" x="-10" dy="3">Busy</text>
				</g>
				<g class="pin" id="81_block_right_pin3" transform="translate(227 70)" data-docPath="doc/MQTT_PubTopic_Array.Errors.doc.html">
					<circle class="anchor" id="81_block_right_pin3_anchor" r="3"/>
					<text class="expression" id="81_block_right_pin3_expression" x="-10" dy="3">Errors</text>
				</g>
				<g class="pin" id="81_block_right_pin4" transform="translate(227 90)" data-docPath="doc/MQTT_PubTopic_Array.Times.doc.html">
					<circle class="anchor" id="81_block_right_pin4_anchor" r="3"/>
					<text class="expression" id="81_block_right_pin4_expression" x="-10" dy="3">Times</text>
				</g>
			</g>
			<g class="order" id="81_block_order" transform="translate(219, -10)">
				<rect class="box" id="81_block_order_box" height="14" width="14" rx="7"/>
				<text class="expression" id="81_block_order_expression" x="10" y="10">6</text>
			</g>
		</g>
		
		<g class="block" id="83_block" transform="translate(1899, 710)" data-docPath="doc/FVEdubnica_MQTT.doc.html" data-fbpou="MQTTcomm" data-instance="FVE">
			<rect class="box" id="83_block_box" height="40" width="176" rx="5"/>
			<g class="type" id="83_block_type" transform="translate(1, 1)">
				<rect class="box" id="83_block_type_box" height="20" width="174" rx="4"/>
				<text class="expression" id="83_block_type_expression" x="88" y="13">FVEdubnica_MQTT</text>
			</g>
			<text class="expression" id="83_block_expression" x="10" y="-10">FVE</text>
			<g class="left" id="83_block_left" transform="translate(0, 20)">
				<g class="pin" id="83_block_left_pin" transform="translate(0 10)" data-docPath="doc/FVEdubnica_MQTT.trig.doc.html">
					<circle class="anchor" id="83_block_left_pin_anchor" r="3"/>
					<text class="expression" id="83_block_left_pin_expression" x="10" dy="3">trig</text>
				</g>
			</g>
			<g class="order" id="83_block_order" transform="translate(168, -10)">
				<rect class="box" id="83_block_order_box" height="14" width="14" rx="7"/>
				<text class="expression" id="83_block_order_expression" x="10" y="10">8</text>
			</g>
		</g>
		
		<g class="block" id="84_block" transform="translate(1550, 460)" data-docPath="doc/SunSpec_MQTT.doc.html" data-fbpou="MQTTcomm" data-instance="FroniusData">
			<rect class="box" id="84_block_box" height="1200" width="149" rx="5"/>
			<g class="type" id="84_block_type" transform="translate(1, 1)">
				<rect class="box" id="84_block_type_box" height="20" width="147" rx="4"/>
				<text class="expression" id="84_block_type_expression" x="74" y="13">SunSpec_MQTT</text>
			</g>
			<text class="expression" id="84_block_expression" x="10" y="-10">FroniusData</text>
			<g class="left" id="84_block_left" transform="translate(0, 20)">
				<g class="pin" id="84_block_left_pin" transform="translate(0 10)" data-docPath="doc/SunSpec_MQTT.trig.doc.html">
					<circle class="anchor" id="84_block_left_pin_anchor" r="3"/>
					<text class="expression" id="84_block_left_pin_expression" x="10" dy="3">trig</text>
				</g>
				<g class="pin" id="84_block_left_pin1" transform="translate(0 30)" data-docPath="doc/SunSpec_MQTT.Name_1.doc.html">
					<circle class="anchor" id="84_block_left_pin1_anchor" r="3"/>
					<text class="expression" id="84_block_left_pin1_expression" x="10" dy="3">Name_1</text>
				</g>
				<g class="pin" id="84_block_left_pin2" transform="translate(0 50)" data-docPath="doc/SunSpec_MQTT.Name_2.doc.html">
					<circle class="anchor" id="84_block_left_pin2_anchor" r="3"/>
					<text class="expression" id="84_block_left_pin2_expression" x="10" dy="3">Name_2</text>
				</g>
				<g class="pin" id="84_block_left_pin3" transform="translate(0 70)" data-docPath="doc/SunSpec_MQTT.Name_3.doc.html">
					<circle class="anchor" id="84_block_left_pin3_anchor" r="3"/>
					<text class="expression" id="84_block_left_pin3_expression" x="10" dy="3">Name_3</text>
				</g>
				<g class="pin" id="84_block_left_pin4" transform="translate(0 90)" data-docPath="doc/SunSpec_MQTT.Name_4.doc.html">
					<circle class="anchor" id="84_block_left_pin4_anchor" r="3"/>
					<text class="expression" id="84_block_left_pin4_expression" x="10" dy="3">Name_4</text>
				</g>
				<g class="pin" id="84_block_left_pin5" transform="translate(0 110)" data-docPath="doc/SunSpec_MQTT.Name_5.doc.html">
					<circle class="anchor" id="84_block_left_pin5_anchor" r="3"/>
					<text class="expression" id="84_block_left_pin5_expression" x="10" dy="3">Name_5</text>
				</g>
				<g class="pin" id="84_block_left_pin6" transform="translate(0 130)" data-docPath="doc/SunSpec_MQTT.Name_6.doc.html">
					<circle class="anchor" id="84_block_left_pin6_anchor" r="3"/>
					<text class="expression" id="84_block_left_pin6_expression" x="10" dy="3">Name_6</text>
				</g>
				<g class="pin" id="84_block_left_pin7" transform="translate(0 150)" data-docPath="doc/SunSpec_MQTT.Name_7.doc.html">
					<circle class="anchor" id="84_block_left_pin7_anchor" r="3"/>
					<text class="expression" id="84_block_left_pin7_expression" x="10" dy="3">Name_7</text>
				</g>
				<g class="pin" id="84_block_left_pin8" transform="translate(0 170)" data-docPath="doc/SunSpec_MQTT.Name_8.doc.html">
					<circle class="anchor" id="84_block_left_pin8_anchor" r="3"/>
					<text class="expression" id="84_block_left_pin8_expression" x="10" dy="3">Name_8</text>
				</g>
				<g class="pin" id="84_block_left_pin9" transform="translate(0 190)" data-docPath="doc/SunSpec_MQTT.Name_9.doc.html">
					<circle class="anchor" id="84_block_left_pin9_anchor" r="3"/>
					<text class="expression" id="84_block_left_pin9_expression" x="10" dy="3">Name_9</text>
				</g>
				<g class="pin" id="84_block_left_pin10" transform="translate(0 210)" data-docPath="doc/SunSpec_MQTT.Name_10.doc.html">
					<circle class="anchor" id="84_block_left_pin10_anchor" r="3"/>
					<text class="expression" id="84_block_left_pin10_expression" x="10" dy="3">Name_10</text>
				</g>
				<g class="pin" id="84_block_left_pin11" transform="translate(0 230)" data-docPath="doc/SunSpec_MQTT.Name_11.doc.html">
					<circle class="anchor" id="84_block_left_pin11_anchor" r="3"/>
					<text class="expression" id="84_block_left_pin11_expression" x="10" dy="3">Name_11</text>
				</g>
				<g class="pin" id="84_block_left_pin12" transform="translate(0 250)" data-docPath="doc/SunSpec_MQTT.Name_12.doc.html">
					<circle class="anchor" id="84_block_left_pin12_anchor" r="3"/>
					<text class="expression" id="84_block_left_pin12_expression" x="10" dy="3">Name_12</text>
				</g>
				<g class="pin" id="84_block_left_pin13" transform="translate(0 270)" data-docPath="doc/SunSpec_MQTT.Name_13.doc.html">
					<circle class="anchor" id="84_block_left_pin13_anchor" r="3"/>
					<text class="expression" id="84_block_left_pin13_expression" x="10" dy="3">Name_13</text>
				</g>
				<g class="pin" id="84_block_left_pin14" transform="translate(0 290)" data-docPath="doc/SunSpec_MQTT.Name_14.doc.html">
					<circle class="anchor" id="84_block_left_pin14_anchor" r="3"/>
					<text class="expression" id="84_block_left_pin14_expression" x="10" dy="3">Name_14</text>
				</g>
				<g class="pin" id="84_block_left_pin15" transform="translate(0 310)" data-docPath="doc/SunSpec_MQTT.Value_1.doc.html">
					<circle class="anchor" id="84_block_left_pin15_anchor" r="3"/>
					<text class="expression" id="84_block_left_pin15_expression" x="10" dy="3">Value_1</text>
				</g>
				<g class="pin" id="84_block_left_pin16" transform="translate(0 330)" data-docPath="doc/SunSpec_MQTT.Value_2.doc.html">
					<circle class="anchor" id="84_block_left_pin16_anchor" r="3"/>
					<text class="expression" id="84_block_left_pin16_expression" x="10" dy="3">Value_2</text>
				</g>
				<g class="pin" id="84_block_left_pin17" transform="translate(0 350)" data-docPath="doc/SunSpec_MQTT.Value_3.doc.html">
					<circle class="anchor" id="84_block_left_pin17_anchor" r="3"/>
					<text class="expression" id="84_block_left_pin17_expression" x="10" dy="3">Value_3</text>
				</g>
				<g class="pin" id="84_block_left_pin18" transform="translate(0 370)" data-docPath="doc/SunSpec_MQTT.Value_4.doc.html">
					<circle class="anchor" id="84_block_left_pin18_anchor" r="3"/>
					<text class="expression" id="84_block_left_pin18_expression" x="10" dy="3">Value_4</text>
				</g>
				<g class="pin" id="84_block_left_pin19" transform="translate(0 390)" data-docPath="doc/SunSpec_MQTT.Value_5.doc.html">
					<circle class="anchor" id="84_block_left_pin19_anchor" r="3"/>
					<text class="expression" id="84_block_left_pin19_expression" x="10" dy="3">Value_5</text>
				</g>
				<g class="pin" id="84_block_left_pin20" transform="translate(0 410)" data-docPath="doc/SunSpec_MQTT.Value_6.doc.html">
					<circle class="anchor" id="84_block_left_pin20_anchor" r="3"/>
					<text class="expression" id="84_block_left_pin20_expression" x="10" dy="3">Value_6</text>
				</g>
				<g class="pin" id="84_block_left_pin21" transform="translate(0 430)" data-docPath="doc/SunSpec_MQTT.Value_7.doc.html">
					<circle class="anchor" id="84_block_left_pin21_anchor" r="3"/>
					<text class="expression" id="84_block_left_pin21_expression" x="10" dy="3">Value_7</text>
				</g>
				<g class="pin" id="84_block_left_pin22" transform="translate(0 450)" data-docPath="doc/SunSpec_MQTT.Value_8.doc.html">
					<circle class="anchor" id="84_block_left_pin22_anchor" r="3"/>
					<text class="expression" id="84_block_left_pin22_expression" x="10" dy="3">Value_8</text>
				</g>
				<g class="pin" id="84_block_left_pin23" transform="translate(0 470)" data-docPath="doc/SunSpec_MQTT.Value_9.doc.html">
					<circle class="anchor" id="84_block_left_pin23_anchor" r="3"/>
					<text class="expression" id="84_block_left_pin23_expression" x="10" dy="3">Value_9</text>
				</g>
				<g class="pin" id="84_block_left_pin24" transform="translate(0 490)" data-docPath="doc/SunSpec_MQTT.Value_10.doc.html">
					<circle class="anchor" id="84_block_left_pin24_anchor" r="3"/>
					<text class="expression" id="84_block_left_pin24_expression" x="10" dy="3">Value_10</text>
				</g>
				<g class="pin" id="84_block_left_pin25" transform="translate(0 510)" data-docPath="doc/SunSpec_MQTT.Value_11.doc.html">
					<circle class="anchor" id="84_block_left_pin25_anchor" r="3"/>
					<text class="expression" id="84_block_left_pin25_expression" x="10" dy="3">Value_11</text>
				</g>
				<g class="pin" id="84_block_left_pin26" transform="translate(0 530)" data-docPath="doc/SunSpec_MQTT.Value_12.doc.html">
					<circle class="anchor" id="84_block_left_pin26_anchor" r="3"/>
					<text class="expression" id="84_block_left_pin26_expression" x="10" dy="3">Value_12</text>
				</g>
				<g class="pin" id="84_block_left_pin27" transform="translate(0 550)" data-docPath="doc/SunSpec_MQTT.Value_13.doc.html">
					<circle class="anchor" id="84_block_left_pin27_anchor" r="3"/>
					<text class="expression" id="84_block_left_pin27_expression" x="10" dy="3">Value_13</text>
				</g>
				<g class="pin" id="84_block_left_pin28" transform="translate(0 570)" data-docPath="doc/SunSpec_MQTT.Value_14.doc.html">
					<circle class="anchor" id="84_block_left_pin28_anchor" r="3"/>
					<text class="expression" id="84_block_left_pin28_expression" x="10" dy="3">Value_14</text>
				</g>
				<g class="pin" id="84_block_left_pin29" transform="translate(0 590)" data-docPath="doc/SunSpec_MQTT.Hys_1.doc.html">
					<circle class="anchor" id="84_block_left_pin29_anchor" r="3"/>
					<text class="expression" id="84_block_left_pin29_expression" x="10" dy="3">Hys_1</text>
				</g>
				<g class="pin" id="84_block_left_pin30" transform="translate(0 610)" data-docPath="doc/SunSpec_MQTT.Hys_2.doc.html">
					<circle class="anchor" id="84_block_left_pin30_anchor" r="3"/>
					<text class="expression" id="84_block_left_pin30_expression" x="10" dy="3">Hys_2</text>
				</g>
				<g class="pin" id="84_block_left_pin31" transform="translate(0 630)" data-docPath="doc/SunSpec_MQTT.Hys_3.doc.html">
					<circle class="anchor" id="84_block_left_pin31_anchor" r="3"/>
					<text class="expression" id="84_block_left_pin31_expression" x="10" dy="3">Hys_3</text>
				</g>
				<g class="pin" id="84_block_left_pin32" transform="translate(0 650)" data-docPath="doc/SunSpec_MQTT.Hys_4.doc.html">
					<circle class="anchor" id="84_block_left_pin32_anchor" r="3"/>
					<text class="expression" id="84_block_left_pin32_expression" x="10" dy="3">Hys_4</text>
				</g>
				<g class="pin" id="84_block_left_pin33" transform="translate(0 670)" data-docPath="doc/SunSpec_MQTT.Hys_5.doc.html">
					<circle class="anchor" id="84_block_left_pin33_anchor" r="3"/>
					<text class="expression" id="84_block_left_pin33_expression" x="10" dy="3">Hys_5</text>
				</g>
				<g class="pin" id="84_block_left_pin34" transform="translate(0 690)" data-docPath="doc/SunSpec_MQTT.Hys_6.doc.html">
					<circle class="anchor" id="84_block_left_pin34_anchor" r="3"/>
					<text class="expression" id="84_block_left_pin34_expression" x="10" dy="3">Hys_6</text>
				</g>
				<g class="pin" id="84_block_left_pin35" transform="translate(0 710)" data-docPath="doc/SunSpec_MQTT.Hys_7.doc.html">
					<circle class="anchor" id="84_block_left_pin35_anchor" r="3"/>
					<text class="expression" id="84_block_left_pin35_expression" x="10" dy="3">Hys_7</text>
				</g>
				<g class="pin" id="84_block_left_pin36" transform="translate(0 730)" data-docPath="doc/SunSpec_MQTT.Hys_8.doc.html">
					<circle class="anchor" id="84_block_left_pin36_anchor" r="3"/>
					<text class="expression" id="84_block_left_pin36_expression" x="10" dy="3">Hys_8</text>
				</g>
				<g class="pin" id="84_block_left_pin37" transform="translate(0 750)" data-docPath="doc/SunSpec_MQTT.Hys_9.doc.html">
					<circle class="anchor" id="84_block_left_pin37_anchor" r="3"/>
					<text class="expression" id="84_block_left_pin37_expression" x="10" dy="3">Hys_9</text>
				</g>
				<g class="pin" id="84_block_left_pin38" transform="translate(0 770)" data-docPath="doc/SunSpec_MQTT.Hys_10.doc.html">
					<circle class="anchor" id="84_block_left_pin38_anchor" r="3"/>
					<text class="expression" id="84_block_left_pin38_expression" x="10" dy="3">Hys_10</text>
				</g>
				<g class="pin" id="84_block_left_pin39" transform="translate(0 790)" data-docPath="doc/SunSpec_MQTT.Hys_11.doc.html">
					<circle class="anchor" id="84_block_left_pin39_anchor" r="3"/>
					<text class="expression" id="84_block_left_pin39_expression" x="10" dy="3">Hys_11</text>
				</g>
				<g class="pin" id="84_block_left_pin40" transform="translate(0 810)" data-docPath="doc/SunSpec_MQTT.Hys_12.doc.html">
					<circle class="anchor" id="84_block_left_pin40_anchor" r="3"/>
					<text class="expression" id="84_block_left_pin40_expression" x="10" dy="3">Hys_12</text>
				</g>
				<g class="pin" id="84_block_left_pin41" transform="translate(0 830)" data-docPath="doc/SunSpec_MQTT.Hys_13.doc.html">
					<circle class="anchor" id="84_block_left_pin41_anchor" r="3"/>
					<text class="expression" id="84_block_left_pin41_expression" x="10" dy="3">Hys_13</text>
				</g>
				<g class="pin" id="84_block_left_pin42" transform="translate(0 850)" data-docPath="doc/SunSpec_MQTT.Hys_14.doc.html">
					<circle class="anchor" id="84_block_left_pin42_anchor" r="3"/>
					<text class="expression" id="84_block_left_pin42_expression" x="10" dy="3">Hys_14</text>
				</g>
				<g class="pin" id="84_block_left_pin43" transform="translate(0 870)" data-docPath="doc/SunSpec_MQTT.Units_1.doc.html">
					<circle class="anchor" id="84_block_left_pin43_anchor" r="3"/>
					<text class="expression" id="84_block_left_pin43_expression" x="10" dy="3">Units_1</text>
				</g>
				<g class="pin" id="84_block_left_pin44" transform="translate(0 890)" data-docPath="doc/SunSpec_MQTT.Units_2.doc.html">
					<circle class="anchor" id="84_block_left_pin44_anchor" r="3"/>
					<text class="expression" id="84_block_left_pin44_expression" x="10" dy="3">Units_2</text>
				</g>
				<g class="pin" id="84_block_left_pin45" transform="translate(0 910)" data-docPath="doc/SunSpec_MQTT.Units_3.doc.html">
					<circle class="anchor" id="84_block_left_pin45_anchor" r="3"/>
					<text class="expression" id="84_block_left_pin45_expression" x="10" dy="3">Units_3</text>
				</g>
				<g class="pin" id="84_block_left_pin46" transform="translate(0 930)" data-docPath="doc/SunSpec_MQTT.Units_4.doc.html">
					<circle class="anchor" id="84_block_left_pin46_anchor" r="3"/>
					<text class="expression" id="84_block_left_pin46_expression" x="10" dy="3">Units_4</text>
				</g>
				<g class="pin" id="84_block_left_pin47" transform="translate(0 950)" data-docPath="doc/SunSpec_MQTT.Units_5.doc.html">
					<circle class="anchor" id="84_block_left_pin47_anchor" r="3"/>
					<text class="expression" id="84_block_left_pin47_expression" x="10" dy="3">Units_5</text>
				</g>
				<g class="pin" id="84_block_left_pin48" transform="translate(0 970)" data-docPath="doc/SunSpec_MQTT.Units_6.doc.html">
					<circle class="anchor" id="84_block_left_pin48_anchor" r="3"/>
					<text class="expression" id="84_block_left_pin48_expression" x="10" dy="3">Units_6</text>
				</g>
				<g class="pin" id="84_block_left_pin49" transform="translate(0 990)" data-docPath="doc/SunSpec_MQTT.Units_7.doc.html">
					<circle class="anchor" id="84_block_left_pin49_anchor" r="3"/>
					<text class="expression" id="84_block_left_pin49_expression" x="10" dy="3">Units_7</text>
				</g>
				<g class="pin" id="84_block_left_pin50" transform="translate(0 1010)" data-docPath="doc/SunSpec_MQTT.Units_8.doc.html">
					<circle class="anchor" id="84_block_left_pin50_anchor" r="3"/>
					<text class="expression" id="84_block_left_pin50_expression" x="10" dy="3">Units_8</text>
				</g>
				<g class="pin" id="84_block_left_pin51" transform="translate(0 1030)" data-docPath="doc/SunSpec_MQTT.Units_9.doc.html">
					<circle class="anchor" id="84_block_left_pin51_anchor" r="3"/>
					<text class="expression" id="84_block_left_pin51_expression" x="10" dy="3">Units_9</text>
				</g>
				<g class="pin" id="84_block_left_pin52" transform="translate(0 1050)" data-docPath="doc/SunSpec_MQTT.Units_10.doc.html">
					<circle class="anchor" id="84_block_left_pin52_anchor" r="3"/>
					<text class="expression" id="84_block_left_pin52_expression" x="10" dy="3">Units_10</text>
				</g>
				<g class="pin" id="84_block_left_pin53" transform="translate(0 1070)" data-docPath="doc/SunSpec_MQTT.Units_11.doc.html">
					<circle class="anchor" id="84_block_left_pin53_anchor" r="3"/>
					<text class="expression" id="84_block_left_pin53_expression" x="10" dy="3">Units_11</text>
				</g>
				<g class="pin" id="84_block_left_pin54" transform="translate(0 1090)" data-docPath="doc/SunSpec_MQTT.Units_12.doc.html">
					<circle class="anchor" id="84_block_left_pin54_anchor" r="3"/>
					<text class="expression" id="84_block_left_pin54_expression" x="10" dy="3">Units_12</text>
				</g>
				<g class="pin" id="84_block_left_pin55" transform="translate(0 1110)" data-docPath="doc/SunSpec_MQTT.Units_13.doc.html">
					<circle class="anchor" id="84_block_left_pin55_anchor" r="3"/>
					<text class="expression" id="84_block_left_pin55_expression" x="10" dy="3">Units_13</text>
				</g>
				<g class="pin" id="84_block_left_pin56" transform="translate(0 1130)" data-docPath="doc/SunSpec_MQTT.Units_14.doc.html">
					<circle class="anchor" id="84_block_left_pin56_anchor" r="3"/>
					<text class="expression" id="84_block_left_pin56_expression" x="10" dy="3">Units_14</text>
				</g>
				<g class="pin" id="84_block_left_pin57" transform="translate(0 1150)" data-docPath="doc/SunSpec_MQTT.NumberAct.doc.html">
					<circle class="anchor" id="84_block_left_pin57_anchor" r="3"/>
					<text class="expression" id="84_block_left_pin57_expression" x="10" dy="3">NumberAct</text>
				</g>
				<g class="pin" id="84_block_left_pin58" transform="translate(0 1170)" data-docPath="doc/SunSpec_MQTT.Precision.doc.html">
					<circle class="anchor" id="84_block_left_pin58_anchor" r="3"/>
					<text class="expression" id="84_block_left_pin58_expression" x="10" dy="3">Precision</text>
				</g>
			</g>
			<g class="order" id="84_block_order" transform="translate(141, -10)">
				<rect class="box" id="84_block_order_box" height="14" width="14" rx="7"/>
				<text class="expression" id="84_block_order_expression" x="10" y="10">9</text>
			</g>
		</g>
		
		<g class="variable" id="12_variable" transform="translate(1256, 780)">
			<rect class="box" id="12_variable_box" height="20" width="265" rx="5"/>
			<text class="expression" id="12_variable_expression" x="20" y="14">PRG.merania.F_SOC.OUT</text>
			<g class="pin" id="12_variable_pin" transform="translate(265 10)">
				<circle class="anchor" id="12_variable_pin_anchor" r="3"/>
			</g>
		</g>
		
		<g class="variable" id="13_variable" transform="translate(1274, 800)">
			<rect class="box" id="13_variable_box" height="20" width="247" rx="5"/>
			<text class="expression" id="13_variable_expression" x="20" y="14">PRG.merania.F_P.OUT</text>
			<g class="pin" id="13_variable_pin" transform="translate(247 10)">
				<circle class="anchor" id="13_variable_pin_anchor" r="3"/>
			</g>
		</g>
		
		<g class="variable" id="14_variable" transform="translate(1274, 820)">
			<rect class="box" id="14_variable_box" height="20" width="247" rx="5"/>
			<text class="expression" id="14_variable_expression" x="20" y="14">PRG.merania.F_Q.OUT</text>
			<g class="pin" id="14_variable_pin" transform="translate(247 10)">
				<circle class="anchor" id="14_variable_pin_anchor" r="3"/>
			</g>
		</g>
		
		<g class="variable" id="15_variable" transform="translate(1265, 840)">
			<rect class="box" id="15_variable_box" height="20" width="256" rx="5"/>
			<text class="expression" id="15_variable_expression" x="20" y="14">PRG.merania.F_PF.OUT</text>
			<g class="pin" id="15_variable_pin" transform="translate(256 10)">
				<circle class="anchor" id="15_variable_pin_anchor" r="3"/>
			</g>
		</g>
		
		<g class="variable" id="16_variable" transform="translate(1230, 1060)" data-docPath="doc/Sunspec_MQTT_hys.Hys_SOC.doc.html">
			<rect class="box" id="16_variable_box" height="20" width="190" rx="5"/>
			<text class="expression" id="16_variable_expression" x="20" y="14">Fronius.Hys_SOC</text>
			<g class="pin" id="16_variable_pin" transform="translate(190 10)">
				<circle class="anchor" id="16_variable_pin_anchor" r="3"/>
			</g>
		</g>
		
		<g class="variable" id="17_variable" transform="translate(1230, 1080)" data-docPath="doc/Sunspec_MQTT_hys.Hys_P.doc.html">
			<rect class="box" id="17_variable_box" height="20" width="190" rx="5"/>
			<text class="expression" id="17_variable_expression" x="20" y="14">Fronius.Hys_P</text>
			<g class="pin" id="17_variable_pin" transform="translate(190 10)">
				<circle class="anchor" id="17_variable_pin_anchor" r="3"/>
			</g>
		</g>
		
		<g class="variable" id="18_variable" transform="translate(1230, 1100)" data-docPath="doc/Sunspec_MQTT_hys.Hys_Q.doc.html">
			<rect class="box" id="18_variable_box" height="20" width="190" rx="5"/>
			<text class="expression" id="18_variable_expression" x="20" y="14">Fronius.Hys_Q</text>
			<g class="pin" id="18_variable_pin" transform="translate(190 10)">
				<circle class="anchor" id="18_variable_pin_anchor" r="3"/>
			</g>
		</g>
		
		<g class="variable" id="19_variable" transform="translate(1230, 1120)" data-docPath="doc/Sunspec_MQTT_hys.Hys_PF.doc.html">
			<rect class="box" id="19_variable_box" height="20" width="190" rx="5"/>
			<text class="expression" id="19_variable_expression" x="20" y="14">Fronius.Hys_PF</text>
			<g class="pin" id="19_variable_pin" transform="translate(190 10)">
				<circle class="anchor" id="19_variable_pin_anchor" r="3"/>
			</g>
		</g>
		
		<g class="variable" id="20_variable" transform="translate(1420, 1340)">
			<rect class="box" id="20_variable_box" height="20" width="67" rx="5"/>
			<text class="expression" id="20_variable_expression" x="20" y="14"><![CDATA['%']]></text>
			<g class="pin" id="20_variable_pin" transform="translate(67 10)">
				<circle class="anchor" id="20_variable_pin_anchor" r="3"/>
			</g>
		</g>
		
		<g class="variable" id="21_variable" transform="translate(1420, 1360)">
			<rect class="box" id="21_variable_box" height="20" width="67" rx="5"/>
			<text class="expression" id="21_variable_expression" x="20" y="14"><![CDATA['W']]></text>
			<g class="pin" id="21_variable_pin" transform="translate(67 10)">
				<circle class="anchor" id="21_variable_pin_anchor" r="3"/>
			</g>
		</g>
		
		<g class="variable" id="22_variable" transform="translate(1402, 1380)">
			<rect class="box" id="22_variable_box" height="20" width="85" rx="5"/>
			<text class="expression" id="22_variable_expression" x="20" y="14"><![CDATA['VAr']]></text>
			<g class="pin" id="22_variable_pin" transform="translate(85 10)">
				<circle class="anchor" id="22_variable_pin_anchor" r="3"/>
			</g>
		</g>
		
		<g class="variable" id="23_variable" transform="translate(1402, 1400)">
			<rect class="box" id="23_variable_box" height="20" width="85" rx="5"/>
			<text class="expression" id="23_variable_expression" x="20" y="14"><![CDATA['NaN']]></text>
			<g class="pin" id="23_variable_pin" transform="translate(85 10)">
				<circle class="anchor" id="23_variable_pin_anchor" r="3"/>
			</g>
		</g>
		
		<g class="variable" id="24_variable" transform="translate(1230, 500)">
			<rect class="box" id="24_variable_box" height="20" width="220" rx="5"/>
			<text class="expression" id="24_variable_expression" x="20" y="14"><![CDATA['$n$t"Fronius.SOC":']]></text>
			<g class="pin" id="24_variable_pin" transform="translate(220 10)">
				<circle class="anchor" id="24_variable_pin_anchor" r="3"/>
			</g>
		</g>
		
		<g class="variable" id="25_variable" transform="translate(1248, 520)">
			<rect class="box" id="25_variable_box" height="20" width="202" rx="5"/>
			<text class="expression" id="25_variable_expression" x="20" y="14"><![CDATA['$n$t"Fronius.P":']]></text>
			<g class="pin" id="25_variable_pin" transform="translate(202 10)">
				<circle class="anchor" id="25_variable_pin_anchor" r="3"/>
			</g>
		</g>
		
		<g class="variable" id="26_variable" transform="translate(1248, 540)">
			<rect class="box" id="26_variable_box" height="20" width="202" rx="5"/>
			<text class="expression" id="26_variable_expression" x="20" y="14"><![CDATA['$n$t"Fronius.Q":']]></text>
			<g class="pin" id="26_variable_pin" transform="translate(202 10)">
				<circle class="anchor" id="26_variable_pin_anchor" r="3"/>
			</g>
		</g>
		
		<g class="variable" id="27_variable" transform="translate(1239, 560)">
			<rect class="box" id="27_variable_box" height="20" width="211" rx="5"/>
			<text class="expression" id="27_variable_expression" x="20" y="14"><![CDATA['$n$t"Fronius.PF":']]></text>
			<g class="pin" id="27_variable_pin" transform="translate(211 10)">
				<circle class="anchor" id="27_variable_pin_anchor" r="3"/>
			</g>
		</g>
		
		<g class="variable" id="28_variable" transform="translate(1212, 640)">
			<rect class="box" id="28_variable_box" height="20" width="238" rx="5"/>
			<text class="expression" id="28_variable_expression" x="20" y="14"><![CDATA['$n$t"Fronius.StVnd":']]></text>
			<g class="pin" id="28_variable_pin" transform="translate(238 10)">
				<circle class="anchor" id="28_variable_pin_anchor" r="3"/>
			</g>
		</g>
		
		<g class="variable" id="29_variable" transform="translate(1158, 620)">
			<rect class="box" id="29_variable_box" height="20" width="292" rx="5"/>
			<text class="expression" id="29_variable_expression" x="20" y="14"><![CDATA['$n$t"Fronius.StorCtl_Mod":']]></text>
			<g class="pin" id="29_variable_pin" transform="translate(292 10)">
				<circle class="anchor" id="29_variable_pin_anchor" r="3"/>
			</g>
		</g>
		
		<g class="variable" id="30_variable" transform="translate(1167, 580)">
			<rect class="box" id="30_variable_box" height="20" width="283" rx="5"/>
			<text class="expression" id="30_variable_expression" x="20" y="14"><![CDATA['$n$t"Fronius.EMS_enable":']]></text>
			<g class="pin" id="30_variable_pin" transform="translate(283 10)">
				<circle class="anchor" id="30_variable_pin_anchor" r="3"/>
			</g>
		</g>
		
		<g class="variable" id="31_variable" transform="translate(1212, 600)">
			<rect class="box" id="31_variable_box" height="20" width="238" rx="5"/>
			<text class="expression" id="31_variable_expression" x="20" y="14"><![CDATA['$n$t"Fronius.ChaSt":']]></text>
			<g class="pin" id="31_variable_pin" transform="translate(238 10)">
				<circle class="anchor" id="31_variable_pin_anchor" r="3"/>
			</g>
		</g>
		
		<g class="variable" id="32_variable" transform="translate(1274, 860)">
			<rect class="box" id="32_variable_box" height="20" width="247" rx="5"/>
			<text class="expression" id="32_variable_expression" x="20" y="14">BOOL_TO_REAL(EMSenable)</text>
			<g class="pin" id="32_variable_pin" transform="translate(247 10)">
				<circle class="anchor" id="32_variable_pin_anchor" r="3"/>
			</g>
		</g>
		
		<g class="variable" id="33_variable" transform="translate(1238, 880)">
			<rect class="box" id="33_variable_box" height="20" width="283" rx="5"/>
			<text class="expression" id="33_variable_expression" x="20" y="14">WORD_TO_REAL(Fronius_ChaSt)</text>
			<g class="pin" id="33_variable_pin" transform="translate(283 10)">
				<circle class="anchor" id="33_variable_pin_anchor" r="3"/>
			</g>
		</g>
		
		<g class="variable" id="34_variable" transform="translate(1238, 920)">
			<rect class="box" id="34_variable_box" height="20" width="283" rx="5"/>
			<text class="expression" id="34_variable_expression" x="20" y="14">WORD_TO_REAL(Fronius_StVnd)</text>
			<g class="pin" id="34_variable_pin" transform="translate(283 10)">
				<circle class="anchor" id="34_variable_pin_anchor" r="3"/>
			</g>
		</g>
		
		<g class="variable" id="35_variable" transform="translate(1184, 900)">
			<rect class="box" id="35_variable_box" height="20" width="337" rx="5"/>
			<text class="expression" id="35_variable_expression" x="20" y="14">WORD_TO_REAL(Fronius_StorCtl_Mod)</text>
			<g class="pin" id="35_variable_pin" transform="translate(337 10)">
				<circle class="anchor" id="35_variable_pin_anchor" r="3"/>
			</g>
		</g>
		
		<g class="variable" id="36_variable" transform="translate(1393, 1420)">
			<rect class="box" id="36_variable_box" height="20" width="94" rx="5"/>
			<text class="expression" id="36_variable_expression" x="20" y="14"><![CDATA['bool']]></text>
			<g class="pin" id="36_variable_pin" transform="translate(94 10)">
				<circle class="anchor" id="36_variable_pin_anchor" r="3"/>
			</g>
		</g>
		
		<g class="variable" id="37_variable" transform="translate(1339, 1440)">
			<rect class="box" id="37_variable_box" height="20" width="148" rx="5"/>
			<text class="expression" id="37_variable_expression" x="20" y="14"><![CDATA['status_int']]></text>
			<g class="pin" id="37_variable_pin" transform="translate(148 10)">
				<circle class="anchor" id="37_variable_pin_anchor" r="3"/>
			</g>
		</g>
		
		<g class="variable" id="38_variable" transform="translate(1339, 1460)">
			<rect class="box" id="38_variable_box" height="20" width="148" rx="5"/>
			<text class="expression" id="38_variable_expression" x="20" y="14"><![CDATA['status_int']]></text>
			<g class="pin" id="38_variable_pin" transform="translate(148 10)">
				<circle class="anchor" id="38_variable_pin_anchor" r="3"/>
			</g>
		</g>
		
		<g class="variable" id="39_variable" transform="translate(1339, 1480)">
			<rect class="box" id="39_variable_box" height="20" width="148" rx="5"/>
			<text class="expression" id="39_variable_expression" x="20" y="14"><![CDATA['status_int']]></text>
			<g class="pin" id="39_variable_pin" transform="translate(148 10)">
				<circle class="anchor" id="39_variable_pin_anchor" r="3"/>
			</g>
		</g>
		
		<g class="variable" id="40_variable" transform="translate(1344, 1140)">
			<rect class="box" id="40_variable_box" height="20" width="76" rx="5"/>
			<text class="expression" id="40_variable_expression" x="20" y="14">10.0</text>
			<g class="pin" id="40_variable_pin" transform="translate(76 10)">
				<circle class="anchor" id="40_variable_pin_anchor" r="3"/>
			</g>
		</g>
		
		<g class="variable" id="41_variable" transform="translate(1344, 1160)">
			<rect class="box" id="41_variable_box" height="20" width="76" rx="5"/>
			<text class="expression" id="41_variable_expression" x="20" y="14">10.0</text>
			<g class="pin" id="41_variable_pin" transform="translate(76 10)">
				<circle class="anchor" id="41_variable_pin_anchor" r="3"/>
			</g>
		</g>
		
		<g class="variable" id="42_variable" transform="translate(1344, 1180)">
			<rect class="box" id="42_variable_box" height="20" width="76" rx="5"/>
			<text class="expression" id="42_variable_expression" x="20" y="14">10.0</text>
			<g class="pin" id="42_variable_pin" transform="translate(76 10)">
				<circle class="anchor" id="42_variable_pin_anchor" r="3"/>
			</g>
		</g>
		
		<g class="variable" id="43_variable" transform="translate(1344, 1200)">
			<rect class="box" id="43_variable_box" height="20" width="76" rx="5"/>
			<text class="expression" id="43_variable_expression" x="20" y="14">10.0</text>
			<g class="pin" id="43_variable_pin" transform="translate(76 10)">
				<circle class="anchor" id="43_variable_pin_anchor" r="3"/>
			</g>
		</g>
		
		<g class="block" id="82_block" transform="translate(1930, 500)" data-docPath="doc/MQTT_PubTopic_String.doc.html" data-fbpou="MQTTcomm" data-instance="MQTT_live">
			<rect class="box" id="82_block_box" height="160" width="227" rx="5"/>
			<g class="type" id="82_block_type" transform="translate(1, 1)">
				<rect class="box" id="82_block_type_box" height="20" width="225" rx="4"/>
				<text class="expression" id="82_block_type_expression" x="113" y="13">MQTT_PubTopic_String</text>
			</g>
			<text class="expression" id="82_block_expression" x="10" y="-10">MQTT_live</text>
			<g class="left" id="82_block_left" transform="translate(0, 20)">
				<g class="pin" id="82_block_left_pin" transform="translate(0 10)" data-docPath="doc/MQTT_PubTopic_String.Execute.doc.html">
					<circle class="anchor" id="82_block_left_pin_anchor" r="3"/>
					<text class="expression" id="82_block_left_pin_expression" x="10" dy="3">Execute</text>
				</g>
				<g class="pin" id="82_block_left_pin1" transform="translate(0 30)" data-docPath="doc/MQTT_PubTopic_String.Continuous.doc.html">
					<circle class="anchor" id="82_block_left_pin1_anchor" r="3"/>
					<text class="expression" id="82_block_left_pin1_expression" x="10" dy="3">Continuous</text>
				</g>
				<g class="pin" id="82_block_left_pin2" transform="translate(0 50)" data-docPath="doc/MQTT_PubTopic_String.Period.doc.html">
					<circle class="anchor" id="82_block_left_pin2_anchor" r="3"/>
					<text class="expression" id="82_block_left_pin2_expression" x="10" dy="3">Period</text>
				</g>
				<g class="pin" id="82_block_left_pin3" transform="translate(0 70)" data-docPath="doc/MQTT_PubTopic_String.EndOfTopic.doc.html">
					<circle class="anchor" id="82_block_left_pin3_anchor" r="3"/>
					<text class="expression" id="82_block_left_pin3_expression" x="10" dy="3">EndOfTopic</text>
				</g>
				<g class="pin" id="82_block_left_pin4" transform="translate(0 90)" data-docPath="doc/MQTT_PubTopic_String.pMessage.doc.html">
					<circle class="anchor" id="82_block_left_pin4_anchor" r="3"/>
					<text class="expression" id="82_block_left_pin4_expression" x="10" dy="3">pMessage</text>
				</g>
				<g class="pin" id="82_block_left_pin5" transform="translate(0 110)" data-docPath="doc/MQTT_PubTopic_String.PubMessageLen.doc.html">
					<circle class="anchor" id="82_block_left_pin5_anchor" r="3"/>
					<text class="expression" id="82_block_left_pin5_expression" x="10" dy="3">PubMessageLen</text>
				</g>
				<g class="pin" id="82_block_left_pin6" transform="translate(0 130)" data-docPath="doc/MQTT_PubTopic_String.QoS.doc.html">
					<circle class="anchor" id="82_block_left_pin6_anchor" r="3"/>
					<text class="expression" id="82_block_left_pin6_expression" x="10" dy="3">QoS</text>
				</g>
			</g>
			<g class="right" id="82_block_right" transform="translate(0, 20)">
				<g class="pin" id="82_block_right_pin" transform="translate(227 10)" data-docPath="doc/MQTT_PubTopic_String.ErrorPub.doc.html">
					<circle class="anchor" id="82_block_right_pin_anchor" r="3"/>
					<text class="expression" id="82_block_right_pin_expression" x="-10" dy="3">ErrorPub</text>
				</g>
				<g class="pin" id="82_block_right_pin1" transform="translate(227 30)" data-docPath="doc/MQTT_PubTopic_String.Done.doc.html">
					<circle class="anchor" id="82_block_right_pin1_anchor" r="3"/>
					<text class="expression" id="82_block_right_pin1_expression" x="-10" dy="3">Done</text>
				</g>
				<g class="pin" id="82_block_right_pin2" transform="translate(227 50)" data-docPath="doc/MQTT_PubTopic_String.Busy.doc.html">
					<circle class="anchor" id="82_block_right_pin2_anchor" r="3"/>
					<text class="expression" id="82_block_right_pin2_expression" x="-10" dy="3">Busy</text>
				</g>
				<g class="pin" id="82_block_right_pin3" transform="translate(227 70)" data-docPath="doc/MQTT_PubTopic_String.Errors.doc.html">
					<circle class="anchor" id="82_block_right_pin3_anchor" r="3"/>
					<text class="expression" id="82_block_right_pin3_expression" x="-10" dy="3">Errors</text>
				</g>
				<g class="pin" id="82_block_right_pin4" transform="translate(227 90)" data-docPath="doc/MQTT_PubTopic_String.Times.doc.html">
					<circle class="anchor" id="82_block_right_pin4_anchor" r="3"/>
					<text class="expression" id="82_block_right_pin4_expression" x="-10" dy="3">Times</text>
				</g>
			</g>
			<g class="order" id="82_block_order" transform="translate(219, -10)">
				<rect class="box" id="82_block_order_box" height="14" width="14" rx="7"/>
				<text class="expression" id="82_block_order_expression" x="10" y="10">7</text>
			</g>
		</g>
		
		<g class="variable" id="44_variable" transform="translate(1800, 520)">
			<rect class="box" id="44_variable_box" height="20" width="80" rx="5"/>
			<text class="expression" id="44_variable_expression" x="20" y="14">TRUE</text>
			<g class="pin" id="44_variable_pin" transform="translate(80 10)">
				<circle class="anchor" id="44_variable_pin_anchor" r="3"/>
			</g>
		</g>
		
		<g class="variable" id="45_variable" transform="translate(1800, 540)">
			<rect class="box" id="45_variable_box" height="20" width="80" rx="5"/>
			<text class="expression" id="45_variable_expression" x="20" y="14">TRUE</text>
			<g class="pin" id="45_variable_pin" transform="translate(80 10)">
				<circle class="anchor" id="45_variable_pin_anchor" r="3"/>
			</g>
		</g>
		
		<g class="variable" id="46_variable" transform="translate(1800, 560)">
			<rect class="box" id="46_variable_box" height="20" width="85" rx="5"/>
			<text class="expression" id="46_variable_expression" x="20" y="14">T#58s</text>
			<g class="pin" id="46_variable_pin" transform="translate(85 10)">
				<circle class="anchor" id="46_variable_pin_anchor" r="3"/>
			</g>
		</g>
		
		<g class="variable" id="47_variable" transform="translate(1750, 580)">
			<rect class="box" id="47_variable_box" height="20" width="130" rx="5"/>
			<text class="expression" id="47_variable_expression" x="20" y="14"><![CDATA['/LiveBit']]></text>
			<g class="pin" id="47_variable_pin" transform="translate(130 10)">
				<circle class="anchor" id="47_variable_pin_anchor" r="3"/>
			</g>
		</g>
		
		<g class="variable" id="48_variable" transform="translate(1730, 600)">
			<rect class="box" id="48_variable_box" height="20" width="148" rx="5"/>
			<text class="expression" id="48_variable_expression" x="20" y="14">ADR(LiveMsg)</text>
			<g class="pin" id="48_variable_pin" transform="translate(148 10)">
				<circle class="anchor" id="48_variable_pin_anchor" r="3"/>
			</g>
		</g>
		
		<g class="variable" id="49_variable" transform="translate(1800, 620)">
			<rect class="box" id="49_variable_box" height="20" width="80" rx="5"/>
			<text class="expression" id="49_variable_expression" x="20" y="14">1</text>
			<g class="pin" id="49_variable_pin" transform="translate(80 10)">
				<circle class="anchor" id="49_variable_pin_anchor" r="3"/>
			</g>
		</g>
		
		<g class="variable" id="50_variable" transform="translate(1800, 640)" data-docPath="doc/QoS_c.doc.html">
			<rect class="box" id="50_variable_box" height="20" width="85" rx="5"/>
			<text class="expression" id="50_variable_expression" x="20" y="14">QoS_c</text>
			<g class="pin" id="50_variable_pin" transform="translate(85 10)">
				<circle class="anchor" id="50_variable_pin_anchor" r="3"/>
			</g>
		</g>
		
		<g class="variable" id="76_variable" transform="translate(970, 150)" data-docPath="doc/ArrivedTopicName.doc.html">
			<rect class="box" id="76_variable_box" height="20" width="184" rx="5"/>
			<text class="expression" id="76_variable_expression" x="20" y="14">ArrivedTopicName</text>
			<g class="pin" id="76_variable_pin" transform="translate(0 10)">
				<circle class="anchor" id="76_variable_pin_anchor" r="3"/>
			</g>
			<g class="order" id="76_variable_order" transform="translate(176, -10)">
				<rect class="box" id="76_variable_order_box" height="14" width="14" rx="7"/>
				<text class="expression" id="76_variable_order_expression" x="10" y="10">1</text>
			</g>
		</g>
		
		<g class="variable" id="77_variable" transform="translate(970, 180)" data-docPath="doc/ArrivedMessage.doc.html">
			<rect class="box" id="77_variable_box" height="20" width="166" rx="5"/>
			<text class="expression" id="77_variable_expression" x="20" y="14">ArrivedMessage</text>
			<g class="pin" id="77_variable_pin" transform="translate(0 10)">
				<circle class="anchor" id="77_variable_pin_anchor" r="3"/>
			</g>
			<g class="order" id="77_variable_order" transform="translate(158, -10)">
				<rect class="box" id="77_variable_order_box" height="14" width="14" rx="7"/>
				<text class="expression" id="77_variable_order_expression" x="10" y="10">2</text>
			</g>
		</g>
		
		<g class="block" id="78_block" transform="translate(980, 30)" data-docPath="doc/Test.doc.html" data-fbpou="MQTTcomm" data-instance="TestMQTT">
			<rect class="box" id="78_block_box" height="80" width="97" rx="5"/>
			<g class="type" id="78_block_type" transform="translate(1, 1)">
				<rect class="box" id="78_block_type_box" height="20" width="95" rx="4"/>
				<text class="expression" id="78_block_type_expression" x="48" y="13">Test</text>
			</g>
			<text class="expression" id="78_block_expression" x="10" y="-10">TestMQTT</text>
			<g class="left" id="78_block_left" transform="translate(0, 20)">
				<g class="pin" id="78_block_left_pin" transform="translate(0 10)" data-docPath="doc/Test.Msg_arrived.doc.html">
					<circle class="anchor" id="78_block_left_pin_anchor" r="3"/>
					<text class="expression" id="78_block_left_pin_expression" x="10" dy="3">Msg_arrived</text>
				</g>
				<g class="pin" id="78_block_left_pin1" transform="translate(0 30)" data-docPath="doc/Test.Topic_arrived.doc.html">
					<circle class="anchor" id="78_block_left_pin1_anchor" r="3"/>
					<text class="expression" id="78_block_left_pin1_expression" x="10" dy="3">Topic_arrived</text>
				</g>
				<g class="pin" id="78_block_left_pin2" transform="translate(0 50)" data-docPath="doc/Test.trig.doc.html">
					<circle class="anchor" id="78_block_left_pin2_anchor" r="3"/>
					<text class="expression" id="78_block_left_pin2_expression" x="10" dy="3">trig</text>
				</g>
			</g>
			<g class="order" id="78_block_order" transform="translate(89, -10)">
				<rect class="box" id="78_block_order_box" height="14" width="14" rx="7"/>
				<text class="expression" id="78_block_order_expression" x="10" y="10">3</text>
			</g>
		</g>
		
		<g class="variable" id="51_variable" transform="translate(1340, 1220)">
			<rect class="box" id="51_variable_box" height="20" width="76" rx="5"/>
			<text class="expression" id="51_variable_expression" x="20" y="14">1</text>
			<g class="pin" id="51_variable_pin" transform="translate(76 10)">
				<circle class="anchor" id="51_variable_pin_anchor" r="3"/>
			</g>
		</g>
		
		<g class="variable" id="52_variable" transform="translate(1340, 1280)">
			<rect class="box" id="52_variable_box" height="20" width="76" rx="5"/>
			<text class="expression" id="52_variable_expression" x="20" y="14">2</text>
			<g class="pin" id="52_variable_pin" transform="translate(76 10)">
				<circle class="anchor" id="52_variable_pin_anchor" r="3"/>
			</g>
		</g>
		
		<g class="variable" id="53_variable" transform="translate(1340, 1260)">
			<rect class="box" id="53_variable_box" height="20" width="76" rx="5"/>
			<text class="expression" id="53_variable_expression" x="20" y="14">2</text>
			<g class="pin" id="53_variable_pin" transform="translate(76 10)">
				<circle class="anchor" id="53_variable_pin_anchor" r="3"/>
			</g>
		</g>
		
		<g class="variable" id="54_variable" transform="translate(1340, 1240)">
			<rect class="box" id="54_variable_box" height="20" width="76" rx="5"/>
			<text class="expression" id="54_variable_expression" x="20" y="14">2</text>
			<g class="pin" id="54_variable_pin" transform="translate(76 10)">
				<circle class="anchor" id="54_variable_pin_anchor" r="3"/>
			</g>
		</g>
		
		<g class="variable" id="55_variable" transform="translate(1340, 1300)">
			<rect class="box" id="55_variable_box" height="20" width="76" rx="5"/>
			<text class="expression" id="55_variable_expression" x="20" y="14">0.1</text>
			<g class="pin" id="55_variable_pin" transform="translate(76 10)">
				<circle class="anchor" id="55_variable_pin_anchor" r="3"/>
			</g>
		</g>
		
		<g class="variable" id="56_variable" transform="translate(1340, 1320)">
			<rect class="box" id="56_variable_box" height="20" width="76" rx="5"/>
			<text class="expression" id="56_variable_expression" x="20" y="14">2.0</text>
			<g class="pin" id="56_variable_pin" transform="translate(76 10)">
				<circle class="anchor" id="56_variable_pin_anchor" r="3"/>
			</g>
		</g>
		
		<g class="variable" id="57_variable" transform="translate(1169, 700)">
			<rect class="box" id="57_variable_box" height="20" width="283" rx="5"/>
			<text class="expression" id="57_variable_expression" x="20" y="14"><![CDATA['$n$t"Fronius.U_bN":']]></text>
			<g class="pin" id="57_variable_pin" transform="translate(283 10)">
				<circle class="anchor" id="57_variable_pin_anchor" r="3"/>
			</g>
		</g>
		
		<g class="variable" id="58_variable" transform="translate(1250, 660)">
			<rect class="box" id="58_variable_box" height="20" width="202" rx="5"/>
			<text class="expression" id="58_variable_expression" x="20" y="14"><![CDATA['$n$t"Fronius.I_AC":']]></text>
			<g class="pin" id="58_variable_pin" transform="translate(202 10)">
				<circle class="anchor" id="58_variable_pin_anchor" r="3"/>
			</g>
		</g>
		
		<g class="variable" id="59_variable" transform="translate(1241, 680)">
			<rect class="box" id="59_variable_box" height="20" width="211" rx="5"/>
			<text class="expression" id="59_variable_expression" x="20" y="14"><![CDATA['$n$t"Fronius.U_aN":']]></text>
			<g class="pin" id="59_variable_pin" transform="translate(211 10)">
				<circle class="anchor" id="59_variable_pin_anchor" r="3"/>
			</g>
		</g>
		
		<g class="variable" id="60_variable" transform="translate(1214, 720)">
			<rect class="box" id="60_variable_box" height="20" width="238" rx="5"/>
			<text class="expression" id="60_variable_expression" x="20" y="14"><![CDATA['$n$t"Fronius.U_cN":']]></text>
			<g class="pin" id="60_variable_pin" transform="translate(238 10)">
				<circle class="anchor" id="60_variable_pin_anchor" r="3"/>
			</g>
		</g>
		
		<g class="variable" id="61_variable" transform="translate(1269, 1000)">
			<rect class="box" id="61_variable_box" height="20" width="256" rx="5"/>
			<text class="expression" id="61_variable_expression" x="20" y="14">PRG.merania.F_U_cN.OUT</text>
			<g class="pin" id="61_variable_pin" transform="translate(256 10)">
				<circle class="anchor" id="61_variable_pin_anchor" r="3"/>
			</g>
		</g>
		
		<g class="variable" id="62_variable" transform="translate(1278, 960)">
			<rect class="box" id="62_variable_box" height="20" width="247" rx="5"/>
			<text class="expression" id="62_variable_expression" x="20" y="14">PRG.merania.F_U_aN.OUT</text>
			<g class="pin" id="62_variable_pin" transform="translate(247 10)">
				<circle class="anchor" id="62_variable_pin_anchor" r="3"/>
			</g>
		</g>
		
		<g class="variable" id="63_variable" transform="translate(1278, 980)">
			<rect class="box" id="63_variable_box" height="20" width="247" rx="5"/>
			<text class="expression" id="63_variable_expression" x="20" y="14">PRG.merania.F_U_bN.OUT</text>
			<g class="pin" id="63_variable_pin" transform="translate(247 10)">
				<circle class="anchor" id="63_variable_pin_anchor" r="3"/>
			</g>
		</g>
		
		<g class="variable" id="64_variable" transform="translate(1260, 940)">
			<rect class="box" id="64_variable_box" height="20" width="265" rx="5"/>
			<text class="expression" id="64_variable_expression" x="20" y="14">PRG.merania.F_I_AC.OUT</text>
			<g class="pin" id="64_variable_pin" transform="translate(265 10)">
				<circle class="anchor" id="64_variable_pin_anchor" r="3"/>
			</g>
		</g>
		
		<g class="variable" id="65_variable" transform="translate(1417, 1500)">
			<rect class="box" id="65_variable_box" height="20" width="67" rx="5"/>
			<text class="expression" id="65_variable_expression" x="20" y="14"><![CDATA['A']]></text>
			<g class="pin" id="65_variable_pin" transform="translate(67 10)">
				<circle class="anchor" id="65_variable_pin_anchor" r="3"/>
			</g>
		</g>
		
		<g class="variable" id="66_variable" transform="translate(1417, 1520)">
			<rect class="box" id="66_variable_box" height="20" width="67" rx="5"/>
			<text class="expression" id="66_variable_expression" x="20" y="14"><![CDATA['V']]></text>
			<g class="pin" id="66_variable_pin" transform="translate(67 10)">
				<circle class="anchor" id="66_variable_pin_anchor" r="3"/>
			</g>
		</g>
		
		<g class="variable" id="67_variable" transform="translate(1417, 1540)">
			<rect class="box" id="67_variable_box" height="20" width="67" rx="5"/>
			<text class="expression" id="67_variable_expression" x="20" y="14"><![CDATA['V']]></text>
			<g class="pin" id="67_variable_pin" transform="translate(67 10)">
				<circle class="anchor" id="67_variable_pin_anchor" r="3"/>
			</g>
		</g>
		
		<g class="variable" id="68_variable" transform="translate(1417, 1560)">
			<rect class="box" id="68_variable_box" height="20" width="67" rx="5"/>
			<text class="expression" id="68_variable_expression" x="20" y="14"><![CDATA['V']]></text>
			<g class="pin" id="68_variable_pin" transform="translate(67 10)">
				<circle class="anchor" id="68_variable_pin_anchor" r="3"/>
			</g>
		</g>
		
		<g class="variable" id="69_variable" transform="translate(1417, 1600)">
			<rect class="box" id="69_variable_box" height="20" width="67" rx="5"/>
			<text class="expression" id="69_variable_expression" x="20" y="14"><![CDATA['V']]></text>
			<g class="pin" id="69_variable_pin" transform="translate(67 10)">
				<circle class="anchor" id="69_variable_pin_anchor" r="3"/>
			</g>
		</g>
		
		<g class="variable" id="70_variable" transform="translate(1417, 1580)">
			<rect class="box" id="70_variable_box" height="20" width="67" rx="5"/>
			<text class="expression" id="70_variable_expression" x="20" y="14"><![CDATA['A']]></text>
			<g class="pin" id="70_variable_pin" transform="translate(67 10)">
				<circle class="anchor" id="70_variable_pin_anchor" r="3"/>
			</g>
		</g>
		
		<g class="variable" id="71_variable" transform="translate(1280, 1020)">
			<rect class="box" id="71_variable_box" height="20" width="247" rx="5"/>
			<text class="expression" id="71_variable_expression" x="20" y="14">PRG.merania.F_I_DC.OUT</text>
			<g class="pin" id="71_variable_pin" transform="translate(247 10)">
				<circle class="anchor" id="71_variable_pin_anchor" r="3"/>
			</g>
		</g>
		
		<g class="variable" id="72_variable" transform="translate(1271, 1040)">
			<rect class="box" id="72_variable_box" height="20" width="256" rx="5"/>
			<text class="expression" id="72_variable_expression" x="20" y="14">PRG.merania.F_U_DC.OUT</text>
			<g class="pin" id="72_variable_pin" transform="translate(256 10)">
				<circle class="anchor" id="72_variable_pin_anchor" r="3"/>
			</g>
		</g>
		
		<g class="variable" id="73_variable" transform="translate(1170, 740)">
			<rect class="box" id="73_variable_box" height="20" width="283" rx="5"/>
			<text class="expression" id="73_variable_expression" x="20" y="14"><![CDATA['$n$t"Fronius.I_DC":']]></text>
			<g class="pin" id="73_variable_pin" transform="translate(283 10)">
				<circle class="anchor" id="73_variable_pin_anchor" r="3"/>
			</g>
		</g>
		
		<g class="variable" id="74_variable" transform="translate(1215, 760)">
			<rect class="box" id="74_variable_box" height="20" width="238" rx="5"/>
			<text class="expression" id="74_variable_expression" x="20" y="14"><![CDATA['$n$t"Fronius.U_DC":']]></text>
			<g class="pin" id="74_variable_pin" transform="translate(238 10)">
				<circle class="anchor" id="74_variable_pin_anchor" r="3"/>
			</g>
		</g>
		<path class="connection" id="connection0" d="
			M508 230
			L517 230"/>
		
		<path class="connection" id="connection1" d="
			M513 250
			L517 250"/>
		
		<path class="connection" id="connection2" d="
			M508 270
			L517 270"/>
		
		<path class="connection" id="connection3" d="
			M795 330
			L966 330"/>
		
		<path class="connection" id="connection4" d="
			M795 350
			L966 350"/>
		
		<path class="connection" id="connection5" d="
			M795 370
			L966 370"/>
		
		<path class="connection" id="connection6" d="
			M1271 350
			L1327 350"/>
		
		<path class="connection" id="connection7" d="
			M1271 370
			L1327 370"/>
		
		<path class="connection" id="connection8" d="
			M1271 390
			L1327 390"/>
		
		<path class="connection" id="connection9" d="
			M1605 350
			L1789 350
			Q1800 350 1800 339
			L1800 321
			Q1800 310 1811 310
			L2077 310"/>
		
		<path class="connection" id="connection10" d="
			M1605 370
			L1828 370
			Q1839 370 1839 370
			L1839 370
			Q1839 370 1850 370
			L2077 370"/>
		
		<path class="connection" id="connection11" d="
			M2061 390
			L2077 390"/>
		
		<path class="connection" id="connection12" d="
			M1605 410
			L1607 410
			Q1609 410 1609 410
			L1609 410
			Q1609 410 1620 410
			L2077 410"/>
		
		<path class="connection" id="connection13" d="
			M1967 430
			L2077 430"/>
		
		<path class="connection" id="connection14" d="
			M1271 330
			L1289 330
			Q1300 330 1300 341
			L1300 479
			Q1300 490 1311 490
			L1547 490"/>
		
		<path class="connection" id="connection15" d="
			M1453 510
			L1547 510"/>
		
		<path class="connection" id="connection16" d="
			M1453 530
			L1547 530"/>
		
		<path class="connection" id="connection17" d="
			M1453 550
			L1547 550"/>
		
		<path class="connection" id="connection18" d="
			M1453 570
			L1547 570"/>
		
		<path class="connection" id="connection19" d="
			M1453 590
			L1547 590"/>
		
		<path class="connection" id="connection20" d="
			M1453 610
			L1547 610"/>
		
		<path class="connection" id="connection21" d="
			M1453 630
			L1547 630"/>
		
		<path class="connection" id="connection22" d="
			M1453 650
			L1547 650"/>
		
		<path class="connection" id="connection23" d="
			M1455 670
			L1547 670"/>
		
		<path class="connection" id="connection24" d="
			M1455 690
			L1547 690"/>
		
		<path class="connection" id="connection25" d="
			M1455 710
			L1547 710"/>
		
		<path class="connection" id="connection26" d="
			M1455 730
			L1547 730"/>
		
		<path class="connection" id="connection27" d="
			M1456 750
			L1547 750"/>
		
		<path class="connection" id="connection28" d="
			M1456 770
			L1547 770"/>
		
		<path class="connection" id="connection29" d="
			M1524 790
			L1547 790"/>
		
		<path class="connection" id="connection30" d="
			M1524 810
			L1547 810"/>
		
		<path class="connection" id="connection31" d="
			M1524 830
			L1547 830"/>
		
		<path class="connection" id="connection32" d="
			M1524 850
			L1547 850"/>
		
		<path class="connection" id="connection33" d="
			M1524 870
			L1547 870"/>
		
		<path class="connection" id="connection34" d="
			M1524 890
			L1547 890"/>
		
		<path class="connection" id="connection35" d="
			M1524 910
			L1547 910"/>
		
		<path class="connection" id="connection36" d="
			M1524 930
			L1547 930"/>
		
		<path class="connection" id="connection37" d="
			M1528 950
			L1547 950"/>
		
		<path class="connection" id="connection38" d="
			M1528 970
			L1547 970"/>
		
		<path class="connection" id="connection39" d="
			M1528 990
			L1547 990"/>
		
		<path class="connection" id="connection40" d="
			M1528 1010
			L1547 1010"/>
		
		<path class="connection" id="connection41" d="
			M1530 1030
			L1547 1030"/>
		
		<path class="connection" id="connection42" d="
			M1530 1050
			L1547 1050"/>
		
		<path class="connection" id="connection43" d="
			M1423 1070
			L1547 1070"/>
		
		<path class="connection" id="connection44" d="
			M1423 1090
			L1547 1090"/>
		
		<path class="connection" id="connection45" d="
			M1423 1110
			L1547 1110"/>
		
		<path class="connection" id="connection46" d="
			M1423 1130
			L1547 1130"/>
		
		<path class="connection" id="connection47" d="
			M1423 1150
			L1547 1150"/>
		
		<path class="connection" id="connection48" d="
			M1423 1170
			L1547 1170"/>
		
		<path class="connection" id="connection49" d="
			M1423 1190
			L1547 1190"/>
		
		<path class="connection" id="connection50" d="
			M1423 1210
			L1547 1210"/>
		
		<path class="connection" id="connection51" d="
			M1419 1230
			L1547 1230"/>
		
		<path class="connection" id="connection52" d="
			M1419 1250
			L1547 1250"/>
		
		<path class="connection" id="connection53" d="
			M1419 1270
			L1547 1270"/>
		
		<path class="connection" id="connection54" d="
			M1419 1290
			L1547 1290"/>
		
		<path class="connection" id="connection55" d="
			M1419 1310
			L1547 1310"/>
		
		<path class="connection" id="connection56" d="
			M1419 1330
			L1547 1330"/>
		
		<path class="connection" id="connection57" d="
			M1490 1350
			L1547 1350"/>
		
		<path class="connection" id="connection58" d="
			M1490 1370
			L1547 1370"/>
		
		<path class="connection" id="connection59" d="
			M1490 1390
			L1547 1390"/>
		
		<path class="connection" id="connection60" d="
			M1490 1410
			L1547 1410"/>
		
		<path class="connection" id="connection61" d="
			M1490 1430
			L1547 1430"/>
		
		<path class="connection" id="connection62" d="
			M1490 1450
			L1547 1450"/>
		
		<path class="connection" id="connection63" d="
			M1490 1470
			L1547 1470"/>
		
		<path class="connection" id="connection64" d="
			M1490 1490
			L1547 1490"/>
		
		<path class="connection" id="connection65" d="
			M1487 1510
			L1547 1510"/>
		
		<path class="connection" id="connection66" d="
			M1487 1530
			L1547 1530"/>
		
		<path class="connection" id="connection67" d="
			M1487 1550
			L1547 1550"/>
		
		<path class="connection" id="connection68" d="
			M1487 1570
			L1547 1570"/>
		
		<path class="connection" id="connection69" d="
			M1487 1590
			L1547 1590"/>
		
		<path class="connection" id="connection70" d="
			M1487 1610
			L1547 1610"/>
		
		<path class="connection" id="connection71" d="
			M1883 530
			L1927 530"/>
		
		<path class="connection" id="connection72" d="
			M1883 550
			L1927 550"/>
		
		<path class="connection" id="connection73" d="
			M1888 570
			L1927 570"/>
		
		<path class="connection" id="connection74" d="
			M1883 590
			L1927 590"/>
		
		<path class="connection" id="connection75" d="
			M1881 610
			L1927 610"/>
		
		<path class="connection" id="connection76" d="
			M1883 630
			L1927 630"/>
		
		<path class="connection" id="connection77" d="
			M1888 650
			L1927 650"/>
		
		<path class="connection" id="connection78" d="
			M795 350
			L899 350
			Q910 350 910 339
			L910 171
			Q910 160 921 160
			L967 160"/>
		
		<path class="connection" id="connection79" d="
			M795 370
			L919 370
			Q930 370 930 359
			L930 201
			Q930 190 941 190
			L967 190"/>
		
		<path class="connection" id="connection80" d="
			M795 370
			L864 370
			Q875 370 875 359
			L875 71
			Q875 60 886 60
			L977 60"/>
		
		<path class="connection" id="connection81" d="
			M795 350
			L819 350
			Q830 350 830 339
			L830 91
			Q830 80 841 80
			L977 80"/>
		
		<path class="connection" id="connection82" d="
			M795 330
			L889 330
			Q900 330 900 319
			L900 111
			Q900 100 911 100
			L977 100"/>
		<g id="8_variable_0_container" class="monitoring-container UDINT" transform="translate(526, 255)"
		onclick="openEditDialog(getWebMiPath('.QoS_c','FUNCTION_BLOCK', ''), 'UDINT');" cursor="pointer">
		<image xlink:href="/writeAccess.svg" height="13" width="13" transform="translate(-16 0)"/>
			<rect id="8_variable_0_rect" class="monitoring-box" height="13" stroke-width="0.5"/>
			<text id="8_variable_0_monitoring" class="monitoring-expression" y="9.5"></text>
			<script type="text/ecmascript">
			<![CDATA[
			update("8_variable_0", false, "UDINT", "FUNCTION_BLOCK", ".QoS_c", "");
			]]></script>
		</g>
		<g id="9_variable_0_container" class="monitoring-container UDINT" transform="translate(1985, 415)"
		onclick="openEditDialog(getWebMiPath('.QoS_c','FUNCTION_BLOCK', ''), 'UDINT');" cursor="pointer">
		<image xlink:href="/writeAccess.svg" height="13" width="13" transform="translate(-16 0)"/>
			<rect id="9_variable_0_rect" class="monitoring-box" height="13" stroke-width="0.5"/>
			<text id="9_variable_0_monitoring" class="monitoring-expression" y="9.5"></text>
			<script type="text/ecmascript">
			<![CDATA[
			update("9_variable_0", false, "UDINT", "FUNCTION_BLOCK", ".QoS_c", "");
			]]></script>
		</g>
		<g id="16_variable_0_container" class="monitoring-container REAL" transform="translate(1441, 1055)"
		onclick="openEditDialog(getWebMiPath('.Fronius/Hys_SOC','FUNCTION_BLOCK', ''), 'REAL');" cursor="pointer">
		<image xlink:href="/writeAccess.svg" height="13" width="13" transform="translate(-16 0)"/>
			<rect id="16_variable_0_rect" class="monitoring-box" height="13" stroke-width="0.5"/>
			<text id="16_variable_0_monitoring" class="monitoring-expression" y="9.5"></text>
			<script type="text/ecmascript">
			<![CDATA[
			update("16_variable_0", false, "REAL", "FUNCTION_BLOCK", ".Fronius/Hys_SOC", "");
			]]></script>
		</g>
		<g id="17_variable_0_container" class="monitoring-container REAL" transform="translate(1441, 1075)"
		onclick="openEditDialog(getWebMiPath('.Fronius/Hys_P','FUNCTION_BLOCK', ''), 'REAL');" cursor="pointer">
		<image xlink:href="/writeAccess.svg" height="13" width="13" transform="translate(-16 0)"/>
			<rect id="17_variable_0_rect" class="monitoring-box" height="13" stroke-width="0.5"/>
			<text id="17_variable_0_monitoring" class="monitoring-expression" y="9.5"></text>
			<script type="text/ecmascript">
			<![CDATA[
			update("17_variable_0", false, "REAL", "FUNCTION_BLOCK", ".Fronius/Hys_P", "");
			]]></script>
		</g>
		<g id="18_variable_0_container" class="monitoring-container REAL" transform="translate(1441, 1095)"
		onclick="openEditDialog(getWebMiPath('.Fronius/Hys_Q','FUNCTION_BLOCK', ''), 'REAL');" cursor="pointer">
		<image xlink:href="/writeAccess.svg" height="13" width="13" transform="translate(-16 0)"/>
			<rect id="18_variable_0_rect" class="monitoring-box" height="13" stroke-width="0.5"/>
			<text id="18_variable_0_monitoring" class="monitoring-expression" y="9.5"></text>
			<script type="text/ecmascript">
			<![CDATA[
			update("18_variable_0", false, "REAL", "FUNCTION_BLOCK", ".Fronius/Hys_Q", "");
			]]></script>
		</g>
		<g id="19_variable_0_container" class="monitoring-container REAL" transform="translate(1441, 1115)"
		onclick="openEditDialog(getWebMiPath('.Fronius/Hys_PF','FUNCTION_BLOCK', ''), 'REAL');" cursor="pointer">
		<image xlink:href="/writeAccess.svg" height="13" width="13" transform="translate(-16 0)"/>
			<rect id="19_variable_0_rect" class="monitoring-box" height="13" stroke-width="0.5"/>
			<text id="19_variable_0_monitoring" class="monitoring-expression" y="9.5"></text>
			<script type="text/ecmascript">
			<![CDATA[
			update("19_variable_0", false, "REAL", "FUNCTION_BLOCK", ".Fronius/Hys_PF", "");
			]]></script>
		</g>
		<g id="50_variable_0_container" class="monitoring-container UDINT" transform="translate(1906, 635)"
		onclick="openEditDialog(getWebMiPath('.QoS_c','FUNCTION_BLOCK', ''), 'UDINT');" cursor="pointer">
		<image xlink:href="/writeAccess.svg" height="13" width="13" transform="translate(-16 0)"/>
			<rect id="50_variable_0_rect" class="monitoring-box" height="13" stroke-width="0.5"/>
			<text id="50_variable_0_monitoring" class="monitoring-expression" y="9.5"></text>
			<script type="text/ecmascript">
			<![CDATA[
			update("50_variable_0", false, "UDINT", "FUNCTION_BLOCK", ".QoS_c", "");
			]]></script>
		</g>
		<g id="76_variable_0_container" class="monitoring-container STRING(255)" transform="translate(949, 145)"
		onmouseover="createTooltip('76_variable_0', '.ArrivedTopicName', 'STRING(255)', '')" onmouseout="deleteTooltip('76_variable_0')"
		onclick="openEditDialog(getWebMiPath('.ArrivedTopicName','FUNCTION_BLOCK', ''), 'STRING(255)');" cursor="pointer">
		<image xlink:href="/writeAccess.svg" height="13" width="13" transform="translate(3 0)"/>
			<rect id="76_variable_0_rect" class="monitoring-box" height="13" stroke-width="0.5"/>
			<text id="76_variable_0_monitoring" class="monitoring-expression" y="9.5"></text>
			<script type="text/ecmascript">
			<![CDATA[
			update("76_variable_0", true, "STRING(255)", "FUNCTION_BLOCK", ".ArrivedTopicName", "");
			]]></script>
		</g>
		<g id="77_variable_0_container" class="monitoring-container STRING(255)" transform="translate(949, 175)"
		onmouseover="createTooltip('77_variable_0', '.ArrivedMessage', 'STRING(255)', '')" onmouseout="deleteTooltip('77_variable_0')"
		onclick="openEditDialog(getWebMiPath('.ArrivedMessage','FUNCTION_BLOCK', ''), 'STRING(255)');" cursor="pointer">
		<image xlink:href="/writeAccess.svg" height="13" width="13" transform="translate(3 0)"/>
			<rect id="77_variable_0_rect" class="monitoring-box" height="13" stroke-width="0.5"/>
			<text id="77_variable_0_monitoring" class="monitoring-expression" y="9.5"></text>
			<script type="text/ecmascript">
			<![CDATA[
			update("77_variable_0", true, "STRING(255)", "FUNCTION_BLOCK", ".ArrivedMessage", "");
			]]></script>
		</g>
	</g>
</svg>